Agents.jl Integration · AlgebraicAgents.jl
…
# simulate the model
simulate(m)

agent sir_model with uuid 629bb4ba of type ABMAgent 
   custom properties:
   abm: 
StandardABM with 27413 agents of type PoorSoul
 space: GraphSpace with 8 positions and 56 edges
 scheduler: fastest
 properties: migration_rates, Is, infection_period, __aagent__, detection_time, reinfection_probability, Ns, β_det, death_rate, β_und, C
   df_agents: 
0×0 DataFrame
   df_model: 
101×4 DataFrame
 Row │ step     infected_status  recovered_status  length_status
     │ Float64  Int64            Int64             Int64
─────┼───────────────────────────────────────────────────────────
   1 │     0.0                1                 0          28540
   2 │     1.0                2                 0          28540
   3 │     2.0                3                 0          28540
   4 │     3.0                5                 0          28540
   5 │     4.0                8                 0          28540
   6 │     5.0               16                 0          28540
   7 │     6.0               28                 0          28540
   8 │     7.0               43                 0          28540
  ⋮  │    ⋮            ⋮                ⋮                ⋮
  95 │    94.0            27415                 0          27415
  96 │    95.0            27415                 0          27415
  97 │    96.0            27414                 1          27415
  98 │    97.0            27409                 5          27414
  99 │    98.0            27407                 7          27414
 100 │    99.0            27405                 9          27414
 101 │   100.0            27392                21          27413
                                                  86 rows omitted
…
